cm012 Exercises: Factors
…
## [1] 142

Filter gapminder dataset by 5 countries of your choice. How many levels are in your filtered dataset?

gapminder$country %>%
  nlevels()

## [1] 142

h_countries = c("Chile", "Argentina", "Peru", "Uruguay", "Brazil")

gapminder %>%
  filter(country %in% h_countries)

## # A tibble: 60 x 6
##    country   continent  year lifeExp      pop gdpPercap
##    <fct>     <fct>     <int>   <dbl>    <int>     <dbl>
##  1 Argentina Americas   1952    62.5 17876956     5911.
##  2 Argentina Americas   1957    64.4 19610538     6857.
##  3 Argentina Americas   1962    65.1 21283783     7133.
##  4 Argentina Americas   1967    65.6 22934225     8053.
##  5 Argentina Americas   1972    67.1 24779799     9443.
##  6 Argentina Americas   1977    68.5 26983828    10079.
##  7 Argentina Americas   1982    69.9 29341374     8998.
##  8 Argentina Americas   1987    70.8 31620918     9140.
##  9 Argentina Americas   1992    71.9 33958947     9308.
## 10 Argentina Americas   1997    73.3 36203463    10967.
## #  with 50 more rows
…
